R数据科学之ggplot2初识 | Serendipity
…
准备工作
本章重点讨论tidyverse的一个核心R包——ggplot2。为了访问本章用到的数据集、帮助页面和函数，需要先运行以下代码来加载tidyverse：

install.packages('tidyverse')
library(tidyverse)

1.2 第一步
大引擎汽车比小引擎汽车更耗油吗？你可能已经有了答案，但应该更努力让答案更精确一些。引擎大小与燃油效率之间是什么关系？是正相关，还是负相关？是线性关系，还是非线性关系？

1.2.1 mpg数据框
gglpot2包中的mpg数据集包含了由美国环境保护协会收集的$38$中车型的观测数据。

mpg
# A tibble: 234 x 11
   manufacturer model      displ  year   cyl trans      drv     cty   hwy fl    class  
                                
 1 audi         a4           1.8  1999     4 auto(l5)   f        18    29 p     compact
 2 audi         a4           1.8  1999     4 manual(m5) f        21    29 p     compact
 3 audi         a4           2    2008     4 manual(m6) f        20    31 p     compact
 4 audi         a4           2    2008     4 auto(av)   f        21    30 p     compact
 5 audi         a4           2.8  1999     6 auto(l5)   f        16    26 p     compact
 6 audi         a4           2.8  1999     6 manual(m5) f        18    26 p     compact
 7 audi         a4           3.1  2008     6 auto(av)   f        18    27 p     compact
 8 audi         a4 quattro   1.8  1999     4 manual(m5) 4        18    26 p     compact
 9 audi         a4 quattro   1.8  1999     4 auto(l5)   4        16    25 p     compact
10 audi         a4 quattro   2    2008     4 manual(m6) 4        20    28 p     compact
# ... with 224 more rows
…
