使用`dplyr`进行数据转换 | Serendipity
…
这些函数都可以和group_by()函数联合起来使用，group_by()函数可以改变以上每个函数的作用范围，让其从在整个数据集上操作变为在每个分组上分别操作。

前面5个函数的工作方式都是相同的。

第一个参数是一个数据框

随后的参数使用变量名称描述了在数据框上进行的操作

输出结果是一个数据框

2.2 使用filter()筛选行
filter()函数可以基于观测值筛选出一个观测子集。第一个参数是数据框名称，第二个参数以及随后的参数是用来筛选数据框的表达式。例如，我们可以使用以下代码筛选出1月1日所有的航班。

> filter(flights, month == 1, day == 1)
# A tibble: 842 x 19
    year month   day dep_time sched_dep_time dep_delay arr_time sched_arr_time
                                      
 1  2013     1     1      517            515         2      830            819
 2  2013     1     1      533            529         4      850            830
 3  2013     1     1      542            540         2      923            850
 4  2013     1     1      544            545        -1     1004           1022
 5  2013     1     1      554            600        -6      812            837
 6  2013     1     1      554            558        -4      740            728
 7  2013     1     1      555            600        -5      913            854
 8  2013     1     1      557            600        -3      709            723
 9  2013     1     1      557            600        -3      838            846
10  2013     1     1      558            600        -2      753            745
# ... with 832 more rows, and 11 more variables: arr_delay , carrier ,
#   flight , tailnum , origin , dest , air_time ,
#   distance , hour , minute , time_hour 
…
缺失值运算的几种特殊形况

NA ^ 0  #1
NA | TRUE #TRUE
FALSE & NA #FALSE

2.3 使用arrange()排列行
arrange()函数的工作方式与filter()函数非常相似，但前者不是选择行，而是改变行的顺序。它接受一个数据框和一组作为排序依据的列名（或者更复杂的表达式）作为参数。如果列名不只一个，那么就使用后面的列在前面排序的基础上继续排序：

> arrange(flights, year, month, day)
# A tibble: 336,776 x 19
    year month   day dep_time sched_dep_time dep_delay arr_time sched_arr_time
                                      
 1  2013     1     1      517            515         2      830            819
 2  2013     1     1      533            529         4      850            830
 3  2013     1     1      542            540         2      923            850
 4  2013     1     1      544            545        -1     1004           1022
 5  2013     1     1      554            600        -6      812            837
 6  2013     1     1      554            558        -4      740            728
 7  2013     1     1      555            600        -5      913            854
 8  2013     1     1      557            600        -3      709            723
 9  2013     1     1      557            600        -3      838            846
10  2013     1     1      558            600        -2      753            745
# ... with 336,766 more rows, and 11 more variables: arr_delay , carrier ,
#   flight , tailnum , origin , dest , air_time ,
#   distance , hour , minute , time_hour 
…
> arrange(df, -is.na(x), x)
# A tibble: 3 x 1
      x
  
1    NA
2     2
3     5

2.4 使用select()选择列
如今，数据集有几百甚至几千个变量已经司空见惯。这种情况下，如何找出真正感兴趣的那些变量经常是我们面临的第一个挑战。通过基于变量名的操作， select()函数可以让你 快速生成一个有用的变量子集。

select(）函数对于航班数据不是特别有用，因为其中只有19个变量，但你还是可以通过这个数据集了解一下 select()函数的大致用法：

> select(flights, year, month, day)
# A tibble: 336,776 x 3
    year month   day
     
 1  2013     1     1
 2  2013     1     1
 3  2013     1     1
 4  2013     1     1
 5  2013     1     1
 6  2013     1     1
 7  2013     1     1
 8  2013     1     1
 9  2013     1     1
10  2013     1     1
# ... with 336,766 more rows

选择year和day之间的所有列（包括year和day）

> select(flights, year:day)
# A tibble: 336,776 x 3
    year month   day
     
 1  2013     1     1
 2  2013     1     1
 3  2013     1     1
 4  2013     1     1
 5  2013     1     1
 6  2013     1     1
 7  2013     1     1
 8  2013     1     1
 9  2013     1     1
10  2013     1     1
# ... with 336,766 more rows

选择不在year和day之间的所有列

> select(flights, -(year:day))
# A tibble: 336,776 x 16
   dep_time sched_dep_time dep_delay arr_time sched_arr_time arr_delay carrier flight
                                             
 1      517            515         2      830            819        11 UA        1545
 2      533            529         4      850            830        20 UA        1714
 3      542            540         2      923            850        33 AA        1141
 4      544            545        -1     1004           1022       -18 B6         725
 5      554            600        -6      812            837       -25 DL         461
 6      554            558        -4      740            728        12 UA        1696
 7      555            600        -5      913            854        19 B6         507
 8      557            600        -3      709            723       -14 EV        5708
 9      557            600        -3      838            846        -8 B6          79
10      558            600        -2      753            745         8 AA         301
# ... with 336,766 more rows, and 8 more variables: tailnum , origin ,
#   dest , air_time , distance , hour , minute ,
#   time_hour 
…
starts_with("abc")：匹配以"abc"开头的名称

ends_with("xyz")：匹配以"xyz"结尾的名称

contains("ijk")：匹配包含"ijk"的名称

matches("(.)\\1")：选择匹配正则表达式的那些变量。这个正则表达式会匹配名称中有重复字符的变量。

num_range("x",1:3)：匹配x1、x2、x3。

select()可以重命名变量，但我们很少这样使用它，因为这样会丢失所有未明确提及到的变量。我们应该使用select()函数的变体rename()函数来重命名变量，以保留所有未明确提及的变量：

> rename(flights, tail_num = tailnum)
# A tibble: 336,776 x 19
    year month   day dep_time sched_dep_time dep_delay arr_time sched_arr_time
                                      
 1  2013     1     1      517            515         2      830            819
 2  2013     1     1      533            529         4      850            830
 3  2013     1     1      542            540         2      923            850
 4  2013     1     1      544            545        -1     1004           1022
 5  2013     1     1      554            600        -6      812            837
 6  2013     1     1      554            558        -4      740            728
 7  2013     1     1      555            600        -5      913            854
 8  2013     1     1      557            600        -3      709            723
 9  2013     1     1      557            600        -3      838            846
10  2013     1     1      558            600        -2      753            745
# ... with 336,766 more rows, and 11 more variables: arr_delay , carrier ,
#   flight , tail_num , origin , dest , air_time ,
#   distance , hour , minute , time_hour 

另一种方法是将select()函数和everything()辅助函数结合起来使用。当想要将几个变量移到数据框开头时，这种方法非常奏效：

> select(flights, time_hour, air_time, everything())
# A tibble: 336,776 x 19
   time_hour           air_time  year month   day dep_time sched_dep_time dep_delay
                                          
 1 2013-01-01 05:00:00      227  2013     1     1      517            515         2
 2 2013-01-01 05:00:00      227  2013     1     1      533            529         4
 3 2013-01-01 05:00:00      160  2013     1     1      542            540         2
 4 2013-01-01 05:00:00      183  2013     1     1      544            545        -1
 5 2013-01-01 06:00:00      116  2013     1     1      554            600        -6
 6 2013-01-01 05:00:00      150  2013     1     1      554            558        -4
 7 2013-01-01 06:00:00      158  2013     1     1      555            600        -5
 8 2013-01-01 06:00:00       53  2013     1     1      557            600        -3
 9 2013-01-01 06:00:00      140  2013     1     1      557            600        -3
10 2013-01-01 06:00:00      138  2013     1     1      558            600        -2
# ... with 336,766 more rows, and 11 more variables: arr_time ,
#   sched_arr_time , arr_delay , carrier , flight ,
#   tailnum , origin , dest , distance , hour ,
#   minute 

select()与one_of()结合使用：

vars <- c("year", "month", "day", "dep_delay", "arr_delay")
select(flights,one_of(vars))
#等同于
select(flights, year, month, day, dep_delay, arr_delay)

contains()函数使用注意：

> select(flights, contains("TIME"))
# A tibble: 336,776 x 6
   dep_time sched_dep_time arr_time sched_arr_time air_time time_hour          
                                                
 1      517            515      830            819      227 2013-01-01 05:00:00
 2      533            529      850            830      227 2013-01-01 05:00:00
 3      542            540      923            850      160 2013-01-01 05:00:00
 4      544            545     1004           1022      183 2013-01-01 05:00:00
 5      554            600      812            837      116 2013-01-01 06:00:00
 6      554            558      740            728      150 2013-01-01 05:00:00
 7      555            600      913            854      158 2013-01-01 06:00:00
 8      557            600      709            723       53 2013-01-01 06:00:00
 9      557            600      838            846      140 2013-01-01 06:00:00
10      558            600      753            745      138 2013-01-01 06:00:00
# ... with 336,766 more rows
> select(flights, contains("TIME", ignore.case = FALSE))
# A tibble: 336,776 x 0

2.5 使用mutate()添加新变量
除了选择现有的列，我们还经常需要添加新列，新列是现有列的函数。这就是mutate()函数的作用。

mutate()总是将新列添加到数据集的最后，因此我们需要先创建一个更狭窄的数据集，以便能够看到新变量。

> flights_sml <- select(flights, year:day, ends_with("delay"), distance, air_time)
> mutate(flights_sml, gain = arr_delay - dep_delay, speed = distance / air_time*60)
# A tibble: 336,776 x 9
    year month   day dep_delay arr_delay distance air_time  gain speed
                         
 1  2013     1     1         2        11     1400      227     9  370.
 2  2013     1     1         4        20     1416      227    16  374.
 3  2013     1     1         2        33     1089      160    31  408.
 4  2013     1     1        -1       -18     1576      183   -17  517.
 5  2013     1     1        -6       -25      762      116   -19  394.
 6  2013     1     1        -4        12      719      150    16  288.
 7  2013     1     1        -5        19     1065      158    24  404.
 8  2013     1     1        -3       -14      229       53   -11  259.
 9  2013     1     1        -3        -8      944      140    -5  405.
10  2013     1     1        -2         8      733      138    10  319.
# ... with 336,766 more rows

一旦创建，新列就可以立即使用：

> mutate(flights_sml, gain = arr_delay - dep_delay, hours = air_time / 60 , gain_per_hour = gain / hours)
# A tibble: 336,776 x 10
    year month   day dep_delay arr_delay distance air_time  gain hours gain_per_hour
                                  
 1  2013     1     1         2        11     1400      227     9 3.78           2.38
 2  2013     1     1         4        20     1416      227    16 3.78           4.23
 3  2013     1     1         2        33     1089      160    31 2.67          11.6 
 4  2013     1     1        -1       -18     1576      183   -17 3.05          -5.57
 5  2013     1     1        -6       -25      762      116   -19 1.93          -9.83
 6  2013     1     1        -4        12      719      150    16 2.5            6.4 
 7  2013     1     1        -5        19     1065      158    24 2.63           9.11
 8  2013     1     1        -3       -14      229       53   -11 0.883        -12.5 
 9  2013     1     1        -3        -8      944      140    -5 2.33          -2.14
10  2013     1     1        -2         8      733      138    10 2.3            4.35
# ... with 336,766 more rows

如果只想保留新变量，可以使用transmute()函数

> transmute(flights_sml, gain = arr_delay - dep_delay, hours = air_time / 60 , gain_per_hour = gain / hours)
# A tibble: 336,776 x 3
    gain hours gain_per_hour
             
 1     9 3.78           2.38
 2    16 3.78           4.23
 3    31 2.67          11.6 
 4   -17 3.05          -5.57
 5   -19 1.93          -9.83
 6    16 2.5            6.4 
 7    24 2.63           9.11
 8   -11 0.883        -12.5 
 9    -5 2.33          -2.14
10    10 2.3            4.35
# ... with 336,766 more rows
…
2.6 使用summarize()进行分组摘要
最后一个核心函数是summarize()，它可以将数据框折叠成一行：

> summarize(flights, delay = mean(dep_delay, na.rm = TRUE))
# A tibble: 1 x 1
  delay
  
1  12.6

与group_by()一起使用

> by_day <- group_by(flights, year, month, day)#按照日期分组
> summarize(by_day, delay = mean(dep_delay, na.rm = TRUE))
# A tibble: 365 x 4
# Groups:   year, month [12]
    year month   day delay
      
 1  2013     1     1 11.5 
 2  2013     1     2 13.9 
 3  2013     1     3 11.0 
 4  2013     1     4  8.95
 5  2013     1     5  5.73
 6  2013     1     6  7.15
 7  2013     1     7  5.42
 8  2013     1     8  2.55
 9  2013     1     9  2.28
10  2013     1    10  2.84
# ... with 355 more rows
…
> daily %>% ungroup() %>% summarize(flights = n())
# A tibble: 1 x 1
  flights
    
1  336776

2.7 分组新变量
虽然与summarize()函数结合起来使用是最有效的，但分组也可以与mutate()和filter()函数结合，以完成非常便捷的操作。

找出每个分组中最差的成员

> flights_sml %>% group_by(year, month, day)
# A tibble: 336,776 x 7
# Groups:   year, month, day [365]
    year month   day dep_delay arr_delay distance air_time
                       
 1  2013     1     1         2        11     1400      227
 2  2013     1     1         4        20     1416      227
 3  2013     1     1         2        33     1089      160
 4  2013     1     1        -1       -18     1576      183
 5  2013     1     1        -6       -25      762      116
 6  2013     1     1        -4        12      719      150
 7  2013     1     1        -5        19     1065      158
 8  2013     1     1        -3       -14      229       53
 9  2013     1     1        -3        -8      944      140
10  2013     1     1        -2         8      733      138
# ... with 336,766 more rows

找出大于某个阈值的所有分组

> (popular_dests <- flights %>% group_by(dest) %>% filter(n() > 365))
# A tibble: 332,577 x 19
# Groups:   dest [77]
    year month   day dep_time sched_dep_time dep_delay arr_time sched_arr_time
                                      
 1  2013     1     1      517            515         2      830            819
 2  2013     1     1      533            529         4      850            830
 3  2013     1     1      542            540         2      923            850
 4  2013     1     1      544            545        -1     1004           1022
 5  2013     1     1      554            600        -6      812            837
 6  2013     1     1      554            558        -4      740            728
 7  2013     1     1      555            600        -5      913            854
 8  2013     1     1      557            600        -3      709            723
 9  2013     1     1      557            600        -3      838            846
10  2013     1     1      558            600        -2      753            745
# ... with 332,567 more rows, and 11 more variables: arr_delay , carrier ,
#   flight , tailnum , origin , dest , air_time ,
#   distance , hour , minute , time_hour 
…
